Exploratory Data Analysis • fgeo
…
Variation is the tendency of the values of a variable to change from measurement to measurement.

Variation

Every variable varies with a particular pattern, and that pattern may be insightful. To understand the variation pattern of a variable, we can visualize the distribution of the variables’ values. The best way to visualize a variable’s distribution depends on whether the variable is categorical or continuous.

The stem dataset has both categorical and continuous variables. In R, categorical variables are usually stored as character strings (<chr>) or factors (<fctr>), and continuous variables are stored as integers (<int>) or doubles (<dbl>).

stem is a tibble. A tibble is a subclass of dataframe. But compared to regular dataframes, tibbles are optimized to handle large data; they also print more information and show it in a nicer way.

class(stem)
#> [1] "tbl_df"     "tbl"        "data.frame"

stem
#> # A tibble: 7,920 x 19
#>    treeID stemID tag   StemTag sp    quadrat    gx    gy MeasureID CensusID
#>     <int>  <int> <chr> <chr>   <chr> <chr>   <dbl> <dbl>     <int>    <int>
#>  1    104    143 10009 10009   DACE~ 113      10.3  245.       143        1
#>  2    119    158 1001~ 100104  MYRS~ 1021    183.   410.       158        1
#>  3    180    222 1001~ 100095  CASA~ 921     165.   410.       222        1
#>  4    180    223 1001~ 100096  CASA~ 921     165.   410.       223        1
#>  5    180    224 1001~ 100171  CASA~ 921     165.   410.       224        1
#>  6    180    225 1001~ 100174  CASA~ 921     165.   410.       225        1
#>  7    602    736 1006~ 100649  GUAG~ 821     149.   414.       736        1
#>  8    631    775 10069 10069   PREM~ 213      38.3  245.       775        1
#>  9    647    793 1007~ 100708  SCHM~ 821     143.   411.       793        1
#> 10   1086   1339 10122 10122   DRYG~ 413      68.9  253.      1339        1
#> # ... with 7,910 more rows, and 9 more variables: dbh <dbl>, pom <chr>,
#> #   hom <dbl>, ExactDate <date>, DFstatus <chr>, codes <chr>,
#> #   countPOM <dbl>, status <chr>, date <dbl>
…
ifelse() has three arguments. The first argument test should be a logical vector. The result will contain the value of the second argument, yes, when test is TRUE, and the value of the third argument, no, when it is FALSE.

# Confirm no rows have been removed,
nrow(stem)
#> [1] 7920
nrow(with_unusual_made_NA)
#> [1] 7920

# but dbh of unusual stems is NA
unusual_only <- with_unusual_made_NA %>% 
  filter(are_unusual) %>% 
  select(dbh, stemID)
unusual_only
#> # A tibble: 24 x 2
#>      dbh stemID
#>    <dbl>  <int>
#>  1    NA  30562
#>  2    NA  32585
#>  3    NA  34692
#>  4    NA  80141
#>  5    NA  30562
#>  6    NA  32585
#>  7    NA  34692
#>  8    NA  80141
#>  9    NA  30562
#> 10    NA  32585
#> # ... with 14 more rows
…
