Get started • fgeo
…
# Tree abundance (picking main stems -- with highest `hom` and largest `dbh`)
main_stems <- pick_main_stem(non_missing)
abundance(main_stems)
#> # A tibble: 1 x 1
#>       n
#>   <int>
#> 1   786

Calculate the abundance of trees by species.

by_sp <- group_by(main_stems, sp)
n_by_sp <- abundance(by_sp)
n_by_sp
#> # A tibble: 65 x 2
#> # Groups:   sp [65]
#>    sp         n
#>    <chr>  <int>
#>  1 ALCFLO     3
#>  2 ANDINE     2
#>  3 ARDGLA     2
#>  4 ARTALT     1
#>  5 BUCTET     7
#>  6 BYRSPI    10
#>  7 CALCAL     1
#>  8 CASARB    66
#>  9 CASSYL    26
#> 10 CECSCH    29
#> # ... with 55 more rows
…
