Analyze Forest Diversity and Dynamics • fgeo
…
example_path()
#>  [1] "csv"           "mixed_files"   "rdata"         "rdata_one"    
#>  [5] "rds"           "taxa.csv"      "tsv"           "vft_4quad.csv"
#>  [9] "view"          "weird"         "xl"

(vft_file <- example_path("view/vft_4quad.csv"))
#> [1] "/home/travis/R/Library/fgeo.x/extdata/view/vft_4quad.csv"

read_<table>()

read_vft() and read_taxa() import a ViewFullTable and ViewTaxonomy from .tsv or .csv files.

read_vft(vft_file)
#> # A tibble: 500 x 32
#>     DBHID PlotName PlotID Family Genus SpeciesName Mnemonic Subspecies
#>     <int> <chr>     <int> <chr>  <chr> <chr>       <chr>    <chr>     
#>  1 385164 luquillo      1 Rubia… Psyc… brachiata   PSYBRA   <NA>      
#>  2 385261 luquillo      1 Urtic… Cecr… schreberia… CECSCH   <NA>      
#>  3 384600 luquillo      1 Rubia… Psyc… brachiata   PSYBRA   <NA>      
#>  4 608789 luquillo      1 Rubia… Psyc… berteroana  PSYBER   <NA>      
#>  5 388579 luquillo      1 Areca… Pres… acuminata   PREMON   <NA>      
#>  6 384626 luquillo      1 Arali… Sche… morototoni  SCHMOR   <NA>      
#>  7 410958 luquillo      1 Rubia… Psyc… brachiata   PSYBRA   <NA>      
#>  8 385102 luquillo      1 Piper… Piper glabrescens PIPGLA   <NA>      
#>  9 353163 luquillo      1 Areca… Pres… acuminata   PREMON   <NA>      
#> 10 481018 luquillo      1 Salic… Case… arborea     CASARB   <NA>      
#> # … with 490 more rows, and 24 more variables: SpeciesID <int>,
#> #   SubspeciesID <chr>, QuadratName <chr>, QuadratID <int>, PX <dbl>,
#> #   PY <dbl>, QX <dbl>, QY <dbl>, TreeID <int>, Tag <chr>, StemID <int>,
#> #   StemNumber <int>, StemTag <int>, PrimaryStem <chr>, CensusID <int>,
#> #   PlotCensusNumber <int>, DBH <dbl>, HOM <dbl>, ExactDate <date>,
#> #   Date <int>, ListOfTSM <chr>, HighHOM <int>, LargeStem <chr>,
#> #   Status <chr>

pick_<what>() and drop_<what>()

fgeo is pipe-friendly. You may not use pipes but often they make code easier to read.

Use %>% to emphasise a sequence of actions, rather than the object that the actions are being performed on.

– https://style.tidyverse.org/pipes.html

pick_dbh_under(), drop_status() and friends pick and drop rows from a ForestGEO ViewFullTable or census table.

(census <- fgeo.x::tree5)
#> # A tibble: 30 x 19
#>    treeID stemID tag   StemTag sp    quadrat    gx    gy MeasureID CensusID
#>     <int>  <int> <chr> <chr>   <chr> <chr>   <dbl> <dbl>     <int>    <int>
#>  1   7624 160987 1089… 175325  TRIP… 722     139.  425.     486675        5
#>  2   8055  10036 1094… 109482  CECS… 522      94.8 424.     468874        5
#>  3  19930 117849 1234… 165576  CASA… 425      61.3 496.     471979        5
#>  4  23746  29677 14473 14473   PREM… 617     100.  328.     442571        5
#>  5  31702  39793 22889 22889   SLOB… 304      53.8  73.8    447307        5
#>  6  35355  44026 27538 27538   SLOB… 1106    203.  110.     449169        5
#>  7  35891  44634 282   282     DACE… 901     172.   14.7    434266        5
#>  8  39705  48888 33371 33370   CASS… 1010    184.  194.     451067        5
#>  9  50184  60798 5830  5830    MATD… 1007    191.  132.     437645        5
#> 10  57380 155867 66962 171649  SLOB… 1414    274.  279.     459427        5
#> # … with 20 more rows, and 9 more variables: dbh <dbl>, pom <chr>,
#> #   hom <dbl>, ExactDate <date>, DFstatus <chr>, codes <chr>,
#> #   nostems <dbl>, status <chr>, date <dbl>
…
stem <- download_data("luquillo_stem6_random")

dim(stem)
#> [1] 1320   19
dim(pick_main_stem(stem))
#> [1] 1000   19

add_<column(s)>()

add_status_tree()adds the column status_tree based on the status of all stems of each tree.

stem %>% 
  select(CensusID, treeID, stemID, status) %>% 
  add_status_tree()
#> # A tibble: 1,320 x 5
#>    CensusID treeID stemID status status_tree
#>       <int>  <int>  <int> <chr>  <chr>      
#>  1        6    104    143 A      A          
#>  2        6    119    158 A      A          
#>  3       NA    180    222 G      A          
#>  4       NA    180    223 G      A          
#>  5        6    180    224 G      A          
#>  6        6    180    225 A      A          
#>  7        6    602    736 A      A          
#>  8        6    631    775 A      A          
#>  9        6    647    793 A      A          
#> 10        6   1086   1339 A      A          
#> # … with 1,310 more rows

add_index() and friends add columns to a ForestGEO-like dataframe.

stem %>% 
  select(gx, gy) %>% 
  add_index()
#> Guessing: plotdim = c(320, 500)
#> * If guess is wrong, provide the correct argument `plotdim`
#> # A tibble: 1,320 x 3
#>       gx    gy index
#>    <dbl> <dbl> <dbl>
#>  1  10.3  245.    13
#>  2 183.   410.   246
#>  3 165.   410.   221
#>  4 165.   410.   221
#>  5 165.   410.   221
#>  6 165.   410.   221
#>  7 149.   414.   196
#>  8  38.3  245.    38
#>  9 143.   411.   196
#> 10  68.9  253.    88
#> # … with 1,310 more rows
…
Species-habitats association

tt_test() runs a torus translation test to determine habitat associations of tree species. as_tibble() converts the output from a list to a more convenient dataframe. summary() helps you to interpret the result.

# This analysis makes sense only for tree tables
tree <- download_data("luquillo_tree5_random")

habitat <- fgeo.x::habitat
result <- tt_test(tree, habitat)
#> Using `plotdim = c(320, 500)`. To change this value see `?tt_test()`.
#> Using `gridsize = 20`. To change this value see `?tt_test()`.

as_tibble(result)
#> # A tibble: 292 x 8
#>    habitat sp     N.Hab Gr.Hab Ls.Hab Eq.Hab Rep.Agg.Neut Obs.Quantile
#>  * <chr>   <chr>  <dbl>  <dbl>  <dbl>  <dbl>        <dbl>        <dbl>
#>  1 1       ALCFLO     2   1443    153      4            0        0.902
#>  2 2       ALCFLO     1    807    778     15            0        0.504
#>  3 3       ALCFLO     0      0    715    885           -1        0    
#>  4 4       ALCFLO     0      0    402   1198           -1        0    
#>  5 1       ALCLAT     0      0    544   1056           -1        0    
#>  6 2       ALCLAT     1   1432    156     12            0        0.895
#>  7 3       ALCLAT     0      0    324   1276           -1        0    
#>  8 4       ALCLAT     0      0    144   1456           -1        0    
#>  9 1       ANDINE     1   1117    466     17            0        0.698
#> 10 2       ANDINE     1   1081    510      9            0        0.676
#> # … with 282 more rows

summary(result)
#> # A tibble: 292 x 3
#>    sp     habitat association
#>    <chr>  <chr>   <chr>      
#>  1 ALCFLO 1       neutral    
#>  2 ALCFLO 2       neutral    
#>  3 ALCFLO 3       repelled   
#>  4 ALCFLO 4       repelled   
#>  5 ALCLAT 1       repelled   
#>  6 ALCLAT 2       neutral    
#>  7 ALCLAT 3       repelled   
#>  8 ALCLAT 4       repelled   
#>  9 ANDINE 1       neutral    
#> 10 ANDINE 2       neutral    
#> # … with 282 more rows
…
