…
(vft_file <- example_path("view/vft_4quad.csv"))
#> [1] "C:/Users/LeporeM/Documents/R/R-3.5.2/library/fgeo.x/extdata/view/vft_4quad.csv"
```

#### `read_<table>()`

`read_vft()` and `read_taxa()` import a ViewFullTable and ViewTaxonomy from .tsv or .csv files.


```r
read_vft(vft_file)
#> # A tibble: 500 x 32
#>     DBHID PlotName PlotID Family Genus SpeciesName Mnemonic Subspecies
#>     <int> <chr>     <int> <chr>  <chr> <chr>       <chr>    <chr>     
#>  1 385164 luquillo      1 Rubia~ Psyc~ brachiata   PSYBRA   <NA>      
#>  2 385261 luquillo      1 Urtic~ Cecr~ schreberia~ CECSCH   <NA>      
#>  3 384600 luquillo      1 Rubia~ Psyc~ brachiata   PSYBRA   <NA>      
#>  4 608789 luquillo      1 Rubia~ Psyc~ berteroana  PSYBER   <NA>      
#>  5 388579 luquillo      1 Areca~ Pres~ acuminata   PREMON   <NA>      
#>  6 384626 luquillo      1 Arali~ Sche~ morototoni  SCHMOR   <NA>      
#>  7 410958 luquillo      1 Rubia~ Psyc~ brachiata   PSYBRA   <NA>      
#>  8 385102 luquillo      1 Piper~ Piper glabrescens PIPGLA   <NA>      
#>  9 353163 luquillo      1 Areca~ Pres~ acuminata   PREMON   <NA>      
#> 10 481018 luquillo      1 Salic~ Case~ arborea     CASARB   <NA>      
#> # ... with 490 more rows, and 24 more variables: SpeciesID <int>,
#> #   SubspeciesID <chr>, QuadratName <chr>, QuadratID <int>, PX <dbl>,
#> #   PY <dbl>, QX <dbl>, QY <dbl>, TreeID <int>, Tag <chr>, StemID <int>,
#> #   StemNumber <int>, StemTag <int>, PrimaryStem <chr>, CensusID <int>,
#> #   PlotCensusNumber <int>, DBH <dbl>, HOM <dbl>, ExactDate <date>,
#> #   Date <int>, ListOfTSM <chr>, HighHOM <int>, LargeStem <chr>,
#> #   Status <chr>
```
…
