…
The first examples use a dataset that is stored online. For simplicity,
we will focus on only a few species.

``` r
downloaded_census <- download_data("luquillo_stem6_random")

few_species <-  c("PREMON", "CASARB")
census <- filter(downloaded_census, sp %in% few_species)

census
#> # A tibble: 433 x 19
#>    treeID stemID tag   StemTag sp    quadrat    gx    gy MeasureID CensusID
#>     <int>  <int> <chr> <chr>   <chr> <chr>   <dbl> <dbl>     <int>    <int>
#>  1    180    222 1001~ 100095  CASA~ 921     165.   410.        NA       NA
#>  2    180    223 1001~ 100096  CASA~ 921     165.   410.        NA       NA
#>  3    180    224 1001~ 100171  CASA~ 921     165.   410.    617046        6
#>  4    180    225 1001~ 100174  CASA~ 921     165.   410.    617049        6
#>  5    631    775 10069 10069   PREM~ 213      38.3  245.    598429        6
#>  6   1380   1702 1015~ 101560  CASA~ 820     142.   386.    614023        6
#>  7   1840   2240 10208 10208   PREM~ 613     116.   245.    607825        6
#>  8   2849   3421 1031~ 103156  CASA~ 420      79.2  389.    603814        6
#>  9   3354   4054 1037~ 103756  CASA~ 220      32.0  385.    599273        6
#> 10   3354   4055 1037~ 103757  CASA~ 220      32.0  385.        NA       NA
#> # ... with 423 more rows, and 9 more variables: dbh <dbl>, pom <chr>,
#> #   hom <dbl>, ExactDate <date>, DFstatus <chr>, codes <chr>,
#> #   countPOM <dbl>, status <chr>, date <dbl>
```
…
Species-habitats association:

``` r
# This analysis makes sense only for tree tables
tree <- download_data("luquillo_tree5_random")

# `habitat` comes with fgeo
to_df(
  tt_test(tree, habitat)
)
#> Using `plotdim = c(320, 500)`. To change this value see `?tt_test()`.
#> Using `gridsize = 20`. To change this value see `?tt_test()`.
#> # A tibble: 292 x 8
#>    habitat sp     N.Hab Gr.Hab Ls.Hab Eq.Hab Rep.Agg.Neut Obs.Quantile
#>  * <chr>   <chr>  <dbl>  <dbl>  <dbl>  <dbl>        <dbl>        <dbl>
#>  1 1       ALCFLO     2   1443    153      4            0        0.902
#>  2 2       ALCFLO     1    807    778     15            0        0.504
#>  3 3       ALCFLO     0      0    715    885           -1        0    
#>  4 4       ALCFLO     0      0    402   1198           -1        0    
#>  5 1       ALCLAT     0      0    544   1056           -1        0    
#>  6 2       ALCLAT     1   1432    156     12            0        0.895
#>  7 3       ALCLAT     0      0    324   1276           -1        0    
#>  8 4       ALCLAT     0      0    144   1456           -1        0    
#>  9 1       ANDINE     1   1117    466     17            0        0.698
#> 10 2       ANDINE     1   1081    510      9            0        0.676
#> # ... with 282 more rows
```
…
