Get started
…
# Tree abundance (picking main stems -- with highest `hom` and largest `dbh`)
main_stems <- pick_main_stem(non_missing)
abundance(main_stems)
#> # A tibble: 1 x 1
#>       n
#>   <int>
#> 1   786

Calculate the abundance of trees by species.

by_sp <- group_by(main_stems, sp)
n_by_sp <- abundance(by_sp)
n_by_sp
#> # A tibble: 65 x 2
#> # Groups:   sp [65]
#>    sp         n
#>    <chr>  <int>
#>  1 ALCFLO     3
#>  2 ANDINE     2
#>  3 ARDGLA     2
#>  4 ARTALT     1
#>  5 BUCTET     7
#>  6 BYRSPI    10
#>  7 CALCAL     1
#>  8 CASARB    66
#>  9 CASSYL    26
#> 10 CECSCH    29
#> # ... with 55 more rows
…
We can aggregate results by any number of variables:

To aggregate by a single variable, you can pass the variable directly to split1.

as_tibble(recruitment_ctfs(census5, census6, split1 = census5$sp))
#> Detected dbh ranges:
#>   * `census1` = 10-955.
#>   * `census2` = 10.2-992.
#> Using dbh `mindbh = 0` and above.
#> # A tibble: 73 x 9
#>    groups    N2     R     rate    lower    upper  time  date1  date2
#>    <chr>  <dbl> <dbl>    <dbl>    <dbl>    <dbl> <dbl>  <dbl>  <dbl>
#>  1 ALCFLO     3     0   0       0         0.205   4.51 18980. 20626 
#>  2 ALCLAT     0     0  NA      NA        NA      NA    18945     NA 
#>  3 ANDINE     2     0   0       0         0.273   4.50 18979  20623 
#>  4 ARDGLA     2     0   0       0         0.269   4.56 18855  20522 
#>  5 ARTALT     1     0   0       0         0.410   4.50 18904  20548 
#>  6 BRUPOR     0     0  NA      NA        NA      NA    18893     NA 
#>  7 BUCTET     7     0   0       0         0.102   4.54 18902  20570.
#>  8 BYRSPI    10     0   0       0         0.0742  4.52 18983. 20650.
#>  9 CALCAL     1     1 Inf      NA       Inf      NA       NA  20626 
#> 10 CASARB    70     5   0.0164  0.00712   0.0377  4.52 18984. 20637.
#> # ... with 63 more rows

To aggregate by multiple variables, use interaction() (but aggregating by more than one variable may be slow and confusing).

sp_quadrat <- interaction(census5$sp, census5$quadrat)
by_many <- recruitment_ctfs(census5, census6, split1 = sp_quadrat)
#> Detected dbh ranges:
#>   * `census1` = 10-955.
#>   * `census2` = 10.2-992.
#> Using dbh `mindbh = 0` and above.
as_tibble(by_many)
#> # A tibble: 26,207 x 9
#>    groups         N2     R  rate lower  upper  time date1 date2
#>    <chr>       <dbl> <dbl> <dbl> <dbl>  <dbl> <dbl> <dbl> <dbl>
#>  1 PREMON.1001     1     0     0     0  0.399  4.62 18806 20495
#>  2 DACEXC.1002     1     0     0     0  0.399  4.63 18805 20495
#>  3 DACEXC.1005     1     0     0     0  0.404  4.56 18849 20515
#>  4 TRIPAL.1005     0     0    NA    NA NA     NA    18849    NA
#>  5 MANBID.1006     1     0     0     0  0.404  4.56 18849 20515
#>  6 EUGSTA.1007     1     0     0     0  0.410  4.50 18891 20534
#>  7 MANBID.1007     1     0     0     0  0.410  4.50 18892 20535
#>  8 MATDOM.1007     1     0     0     0  0.410  4.50 18891 20535
#>  9 MICPRA.1007     0     0    NA    NA NA     NA    18891    NA
#> 10 SLOBER.1007     0     0    NA    NA NA     NA    18890    NA
#> # ... with 26,197 more rows

To separate the multiple groups we can use tidyr::separate().

tidyr::separate(as_tibble(by_many), groups, into = c("species", "quadrats"))
#> # A tibble: 26,207 x 10
#>    species quadrats    N2     R  rate lower  upper  time date1 date2
#>    <chr>   <chr>    <dbl> <dbl> <dbl> <dbl>  <dbl> <dbl> <dbl> <dbl>
#>  1 PREMON  1001         1     0     0     0  0.399  4.62 18806 20495
#>  2 DACEXC  1002         1     0     0     0  0.399  4.63 18805 20495
#>  3 DACEXC  1005         1     0     0     0  0.404  4.56 18849 20515
#>  4 TRIPAL  1005         0     0    NA    NA NA     NA    18849    NA
#>  5 MANBID  1006         1     0     0     0  0.404  4.56 18849 20515
#>  6 EUGSTA  1007         1     0     0     0  0.410  4.50 18891 20534
#>  7 MANBID  1007         1     0     0     0  0.410  4.50 18892 20535
#>  8 MATDOM  1007         1     0     0     0  0.410  4.50 18891 20535
#>  9 MICPRA  1007         0     0    NA    NA NA     NA    18891    NA
#> 10 SLOBER  1007         0     0    NA    NA NA     NA    18890    NA
#> # ... with 26,197 more rows

The same works for mortality and growth.

as_tibble(mortality_ctfs(census5, census6, split1 = sp_quadrat))
#> Detected dbh ranges:
#>   * `census1` = 10-955.
#>   * `census2` = 10.2-992.
#> Using dbh `mindbh = 0` and above.
#> # A tibble: 26,207 x 10
#>    groups          N     D  rate  lower   upper  time date1 date2 dbhmean
#>    <chr>       <dbl> <dbl> <dbl>  <dbl>   <dbl> <dbl> <dbl> <dbl>   <dbl>
#>  1 PREMON.1001     1     0     0 0        0.399  4.62 18806 20495   136  
#>  2 DACEXC.1002     1     0     0 0        0.399  4.63 18805 20495   419  
#>  3 DACEXC.1005     1     0     0 0        0.404  4.56 18849 20515    58  
#>  4 TRIPAL.1005     1     1   Inf 0.0377 Inf      4.56 18849 20515    42.5
#>  5 MANBID.1006     1     0     0 0        0.404  4.56 18849 20515    30.6
#>  6 EUGSTA.1007     1     0     0 0        0.410  4.50 18891 20534    55  
#>  7 MANBID.1007     1     0     0 0        0.410  4.50 18892 20535    15  
#>  8 MATDOM.1007     1     0     0 0        0.410  4.50 18891 20535   240  
#>  9 MICPRA.1007     1     1   Inf 0.0383 Inf      4.50 18891 20534    12.2
#> 10 SLOBER.1007     1     1   Inf 0.0382 Inf      4.50 18890 20534   101  
#> # ... with 26,197 more rows

as_tibble(growth_ctfs(census5, census6, split1 = sp_quadrat))
#> Detected dbh ranges:
#>   * `census1` = 10-955.
#>   * `census2` = 10.2-992.
#> Using dbh `mindbh = 0` and above.
#> # A tibble: 26,207 x 8
#>    groups          rate     N  clim dbhmean  time date1 date2
#>    <chr>          <dbl> <dbl> <dbl>   <dbl> <dbl> <dbl> <dbl>
#>  1 PREMON.1001  -0.216      1    NA   136    4.62 18806 20495
#>  2 DACEXC.1002   0.864      1    NA   419    4.63 18805 20495
#>  3 DACEXC.1005   0.438      1    NA    58    4.56 18849 20515
#>  4 TRIPAL.1005  NA          0    NA    NA   NA       NA    NA
#>  5 MANBID.1006  -0.0219     1    NA    30.6  4.56 18849 20515
#>  6 EUGSTA.1007   0.222      1    NA    55    4.50 18891 20534
#>  7 MANBID.1007  -0.111      1    NA    15    4.50 18892 20535
#>  8 MATDOM.1007   0          1    NA   240    4.50 18891 20535
#>  9 MICPRA.1007  NA          0    NA    NA   NA       NA    NA
#> 10 SLOBER.1007  NA          0    NA    NA   NA       NA    NA
#> # ... with 26,197 more rows
…
