Install and Load Multiple Packages in One Step • fgeo
…
# Short name
stem6 <- luquillo_stem6_random
stem6
#> # A tibble: 1,320 x 19
#>    treeID stemID tag   StemTag sp    quadrat    gx    gy MeasureID CensusID
#>     <int>  <int> <chr> <chr>   <chr> <chr>   <dbl> <dbl>     <int>    <int>
#>  1    104    143 10009 10009   DACE~ 113      10.3  245.    582850        6
#>  2    119    158 1001~ 100104  MYRS~ 1021    183.   410.    578696        6
#>  3    180    222 1001~ 100095  CASA~ 921     165.   410.        NA       NA
#>  4    180    223 1001~ 100096  CASA~ 921     165.   410.        NA       NA
#>  5    180    224 1001~ 100171  CASA~ 921     165.   410.    617046        6
#>  6    180    225 1001~ 100174  CASA~ 921     165.   410.    617049        6
#>  7    602    736 1006~ 100649  GUAG~ 821     149.   414.    614253        6
#>  8    631    775 10069 10069   PREM~ 213      38.3  245.    598429        6
#>  9    647    793 1007~ 100708  SCHM~ 821     143.   411.    614211        6
#> 10   1086   1339 10122 10122   DRYG~ 413      68.9  253.    603131        6
#> # ... with 1,310 more rows, and 9 more variables: dbh <dbl>, pom <chr>,
#> #   hom <dbl>, ExactDate <date>, DFstatus <chr>, codes <chr>,
#> #   countPOM <dbl>, status <chr>, date <dbl>
…
# Tree abundance (picking main stems -- with highest `hom` and largest `dbh`)
largest_stem <- fgeo.tool::pick_main_stem(non_missing)
abundance(largest_stem)
#> # A tibble: 1 x 1
#>       n
#>   <int>
#> 1   786

Count largest stems (unique treeIDs) by species.

by_sp <- group_by(largest_stem, sp)
abundance(by_sp)
#> # A tibble: 65 x 2
#> # Groups:   sp [65]
#>    sp         n
#>    <chr>  <int>
#>  1 ALCFLO     3
#>  2 ANDINE     2
#>  3 ARDGLA     2
#>  4 ARTALT     1
#>  5 BUCTET     7
#>  6 BYRSPI    10
#>  7 CALCAL     1
#>  8 CASARB    66
#>  9 CASSYL    26
#> 10 CECSCH    29
#> # ... with 55 more rows
…
