Get started • fgeo
…
Now it’s clear that a tree is said to be dead only if all its stems are dead.

Dropping missing values

We picked alive_trees but some stems of the remaining dataset are gone or missing. This means that their dbh wasn’t recorded – it is missing.

subset(alive_trees, is.na(dbh), c(relevant_columns, "dbh"))
#> # A tibble: 346 x 5
#>    stemID status treeID status_tree   dbh
#>     <int> <chr>   <int> <chr>       <dbl>
#>  1    222 G         180 A              NA
#>  2    223 G         180 A              NA
#>  3    224 G         180 A              NA
#>  4   2026 G        1652 A              NA
#>  5   4054 D        3354 A              NA
#>  6   4055 G        3354 A              NA
#>  7   4120 G        3405 A              NA
#>  8   5488 G        4485 A              NA
#>  9   8937 D        7269 A              NA
#> 10   9129 D        7389 A              NA
#> # ... with 336 more rows
…
How many trees by quadrat?

by_quad <- group_by(chosen_range, quadrat)
abundance_tree(by_quad)
#> # A tibble: 281 x 2
#>    quadrat     n
#>    <chr>   <int>
#>  1 1001        1
#>  2 1002        1
#>  3 1005        1
#>  4 1007        2
#>  5 1008        1
#>  6 101         1
#>  7 1010        3
#>  8 1016        3
#>  9 1017        7
#> 10 1018        1
#> # ... with 271 more rows

How many trees by quadrat by species?

by_quad_sp <- group_by(chosen_range, quadrat, sp)
abundance_tree(by_quad_sp)
#> # A tibble: 424 x 3
#> # Groups:   quadrat [?]
#>    quadrat sp         n
#>    <chr>   <chr>  <int>
#>  1 1001    PREMON     1
#>  2 1002    DACEXC     1
#>  3 1005    DACEXC     1
#>  4 1007    EUGSTA     1
#>  5 1007    MATDOM     1
#>  6 1008    PREMON     1
#>  7 101     PREMON     1
#>  8 1010    CASSYL     1
#>  9 1010    CECSCH     1
#> 10 1010    HOMRAC     1
#> # ... with 414 more rows
…
