Get help with fgeo. — fgeo_help • fgeo
…
    The results are returned in a list object of class "hsearch", which
has a print method for nicely formatting the results of the query.

    See also

    utils::help.search().

Other functions to explore fgeo: fgeo_browse

    Examples

if (interactive()) fgeo_help()
as_tibble(fgeo_help()$matches)
#> # A tibble: 426 x 9
#>    Topic   Title       Name    ID    Package LibPath      Type  Field Entry     
#>    <chr>   <chr>       <chr>   <chr> <chr>   <chr>        <chr> <chr> <chr>     
#>  1 abunda~ Abundance ~ abunda~ 1/1   fgeo.a~ C:/Users/Le~ help  alias abundance 
#>  2 abunda~ Abundance ~ abunda~ 1/1   fgeo.a~ C:/Users/Le~ help  alias basal_area
#>  3 abunda~ Abundance ~ abunda~ 1/1   fgeo.a~ C:/Users/Le~ help  conc~ functions~
#>  4 abunda~ Abundance ~ abunda~ 1/1   fgeo.a~ C:/Users/Le~ help  Title Abundance~
#>  5 abunda~ Create tab~ abunda~ 1/2   fgeo.a~ C:/Users/Le~ help  alias abundance~
#>  6 abunda~ Create tab~ abunda~ 1/2   fgeo.a~ C:/Users/Le~ help  alias basal_are~
#>  7 abunda~ Create tab~ abunda~ 1/2   fgeo.a~ C:/Users/Le~ help  conc~ functions~
#>  8 abunda~ Create tab~ abunda~ 1/2   fgeo.a~ C:/Users/Le~ help  Title Create ta~
#>  9 demogr~ Recruitmen~ demogr~ 1/3   fgeo.a~ C:/Users/Le~ help  alias demograph~
#> 10 demogr~ Recruitmen~ demogr~ 1/3   fgeo.a~ C:/Users/Le~ help  alias recruitme~
#> # ... with 416 more rows
…
