…
Calculate the abundance of trees by species.


```r
by_sp <- group_by(main_stems, sp)
n_by_sp <- abundance(by_sp)
n_by_sp
#> # A tibble: 65 x 2
#> # Groups:   sp [65]
#>    sp         n
#>    <chr>  <int>
#>  1 ALCFLO     3
#>  2 ANDINE     2
#>  3 ARDGLA     2
#>  4 ARTALT     1
#>  5 BUCTET     7
#>  6 BYRSPI    10
#>  7 CALCAL     1
#>  8 CASARB    66
#>  9 CASSYL    26
#> 10 CECSCH    29
#> # ... with 55 more rows
```
…
Note that `tt_test()` is recommended for sufficiently abundant species:

> You should only try to determine the habitat association for sufficiently abundant species. In a 50-ha plot, a minimum abundance of 50 trees/species has been used.

-- `?tt_test()`


```r
# Find sufficiently abundant species
by_sp <- group_by(tree, sp)
n_by_sp <- abundance(by_sp)
n_by_sp
#> # A tibble: 73 x 2
#> # Groups:   sp [73]
#>    sp         n
#>    <chr>  <int>
#>  1 ALCFLO     3
#>  2 ALCLAT     1
#>  3 ANDINE     2
#>  4 ARDGLA     2
#>  5 ARTALT     1
#>  6 BRUPOR     1
#>  7 BUCTET     8
#>  8 BYRSPI    11
#>  9 CALCAL     1
#> 10 CASARB    94
#> # ... with 63 more rows
…
FYI, `habitats` result from hierarchical clustering on three variables computed from the elevation dataset: mean elevation, convexity and slope.


```r
fgeo_topography(luquillo_elevation, gridsize = 20, n = 4)
#> # A tibble: 400 x 5
#>       gx    gy meanelev convex slope
#>  * <dbl> <dbl>    <dbl>  <dbl> <dbl>
#>  1     0     0     365. -0.390  8.87
#>  2     0    20     365. -0.285 13.7 
#>  3     0    40     367.  0.210 14.4 
#>  4     0    60     367.  0.34  15.9 
#>  5     0    80     362. -0.255 20.8 
#>  6     0   100     358. -0.510 12.4 
#>  7     0   120     359. -0.28  17.1 
#>  8     0   140     360. -0.265 22.1 
#>  9     0   160     362.  0.055 24.3 
#> 10     0   180     364.  0.415 15.2 
#> # ... with 390 more rows
```
…
